"Status","SuccessCount","Run Date & Time"
"",""
"TotalLoanCountOfQS","0","Created Date Yesterday"
"CancelledLoanCount","0",""
"OpenQSLoan","0",""
"DeclinedLoanCount","0",""
"DisbursedLoanCount","0",""
"Enach","3",""
"UploadedNachSigned","1",""
"NachFormSigned","0",""
"LoanProcessing","2",""
"RepaymentCount","1",""
"Listed","0","Source is QS"
